<svg xmlns="http://www.w3.org/2000/svg" xmlns:xlink="http://www.w3.org/1999/xlink" width="190" height="27.023" viewBox="0 0 190 27.023">
  <defs>
    <linearGradient id="linear-gradient" x1="0.339" y1="0.5" x2="0.907" y2="0.5" gradientUnits="objectBoundingBox">
      <stop offset="0" stop-color="#fff"/>
      <stop offset="1" stop-color="#fff" stop-opacity="0"/>
    </linearGradient>
    <linearGradient id="linear-gradient-2" x1="0.512" x2="0.093" xlink:href="#linear-gradient"/>
  </defs>
  <g id="highlighter" transform="translate(-836 -932.5)">
    <path id="Path_25983" data-name="Path 25983" d="M-9937.457,4818.85h53.121l28.588,21.029,26.565-21.029h50.477" transform="translate(10786 -3883.5)" fill="none" stroke="#5d2666" stroke-width="5"/>
    <rect id="Rectangle_624" data-name="Rectangle 624" width="43" height="6" transform="translate(836 932.5)" fill="url(#linear-gradient)"/>
    <rect id="Rectangle_625" data-name="Rectangle 625" width="43" height="6" transform="translate(983 932.5)" fill="url(#linear-gradient-2)"/>
  </g>
</svg>
