<svg xmlns="http://www.w3.org/2000/svg" width="34" height="25" viewBox="0 0 34 25">
  <g id="slider-icon-inactive" transform="translate(-407 -909)">
    <g id="Rectangle_643" data-name="Rectangle 643" transform="translate(412 929)" fill="#fff" stroke="#a0a0a5" stroke-width="1">
      <rect width="5" height="5" rx="1" stroke="none"/>
      <rect x="0.5" y="0.5" width="4" height="4" rx="0.5" fill="none"/>
    </g>
    <g id="Rectangle_646" data-name="Rectangle 646" transform="translate(422 929)" fill="#fff" stroke="#a0a0a5" stroke-width="1">
      <rect width="5" height="5" rx="1" stroke="none"/>
      <rect x="0.5" y="0.5" width="4" height="4" rx="0.5" fill="none"/>
    </g>
    <g id="Rectangle_649" data-name="Rectangle 649" transform="translate(432 929)" fill="#fff" stroke="#a0a0a5" stroke-width="1">
      <rect width="5" height="5" rx="1" stroke="none"/>
      <rect x="0.5" y="0.5" width="4" height="4" rx="0.5" fill="none"/>
    </g>
    <g id="Rectangle_641" data-name="Rectangle 641" transform="translate(407 909)" fill="#fff" stroke="#a0a0a5" stroke-width="1">
      <rect width="34" height="18" rx="1" stroke="none"/>
      <rect x="0.5" y="0.5" width="33" height="17" rx="0.5" fill="none"/>
    </g>
    <path id="Path_26055" data-name="Path 26055" d="M-18414.008,2059l2.811,2.81-2.811,2.811" transform="translate(18846.291 -1143.76)" fill="none" stroke="#a0a0a5" stroke-linecap="round" stroke-width="1"/>
    <path id="Path_26056" data-name="Path 26056" d="M-18411.2,2059l-2.811,2.81,2.811,2.811" transform="translate(18827.314 -1143.76)" fill="none" stroke="#a0a0a5" stroke-linecap="round" stroke-width="1"/>
  </g>
</svg>
